alu/tests/wave_vhdl.vcd
$date
  Wed Nov 16 08:44:27 2022
$end
$version
  GHDL v0
$end
$timescale
  1 fs
$end
$scope module standard $end
$upscope $end
$scope module textio $end
$upscope $end
$scope module std_logic_1164 $end
$upscope $end
$scope module numeric_std $end
$upscope $end
$scope module numeric_std_unsigned $end
$upscope $end
$scope module alu $end
$var reg 32 ! a[31:0] $end
$var reg 32 " b[31:0] $end
$var reg 2 # alucontrol[1:0] $end
$var reg 32 $ result[31:0] $end
$var reg 4 % aluflags[3:0] $end
$var reg 1 & neg $end
$var reg 1 ' zero $end
$var reg 1 ( carry $end
$var reg 1 ) overflow $end
$var reg 32 * condinvb[31:0] $end
$var reg 33 + sum[32:0] $end
$upscope $end
$enddefinitions $end
#0
b00000000000000000000000000001100 !
b00000000000000000000000000100010 "
b00 #
b00000000000000000000000000101110 $
b0000 %
0&
0'
0(
0)
b00000000000000000000000000100010 *
b000000000000000000000000000101110 +
#5000000
b01111111111111111111111111111111 !
b01111111111111111111111111111111 "
b11111111111111111111111111111110 $
b1001 %
1&
1)
b01111111111111111111111111111111 *
b011111111111111111111111111111110 +
#10000000
b11111111111111111111111111111111 !
b00000000000100000001000000000001 "
b00000000000100000001000000000000 $
b0010 %
0&
1(
0)
b00000000000100000001000000000001 *
b100000000000100000001000000000000 +
#15000000
b00000000000000000000000000001100 !
b00000000000000000000000000100010 "
b01 #
b11111111111111111111111111101010 $
b1000 %
1&
0(
b11111111111111111111111111011101 *
b011111111111111111111111111101010 +
#20000000
b01111111111111111111111111111111 !
b01111111111111111111111111111111 "
b00000000000000000000000000000000 $
b0110 %
0&
1'
1(
b10000000000000000000000000000000 *
b100000000000000000000000000000000 +
#25000000
b11111111111111111111111111111111 !
b00000000000100000001000000000001 "
b11111111111011111110111111111110 $
b1010 %
1&
0'
0)
b11111111111011111110111111111110 *
b111111111111011111110111111111110 +
#30000000
b00000000000000000000000000001100 !
b00000000000000000000000000100010 "
b10 #
b00000000000000000000000000000000 $
b0100 %
0&
1'
0(
b00000000000000000000000000100010 *
b000000000000000000000000000101110 +
#35000000
b01111111111111111111111111111111 !
b01111111111111111111111111111111 "
b01111111111111111111111111111111 $
b0000 %
0'
b01111111111111111111111111111111 *
b011111111111111111111111111111110 +
#40000000
b11111111111111111111111111111111 !
b00000000000100000001000000000001 "
b00000000000100000001000000000001 $
b00000000000100000001000000000001 *
b100000000000100000001000000000000 +
#45000000
b00000000000000000000000000001100 !
b00000000000000000000000000100010 "
b11 #
b00000000000000000000000000101110 $
b11111111111111111111111111011101 *
b011111111111111111111111111101010 +
#50000000
b01111111111111111111111111111111 !
b01111111111111111111111111111111 "
b01111111111111111111111111111111 $
b10000000000000000000000000000000 *
b100000000000000000000000000000000 +
#55000000
b11111111111111111111111111111111 !
b00000000000100000001000000000001 "
b11111111111111111111111111111111 $
b1000 %
1&
b11111111111011111110111111111110 *
b111111111111011111110111111111110 +
